{
  "id": 1,
  "name": "Физические лица",
  "title": "Физические лица",
  "categories": [
    {
      "id": 60,
      "title": "депозиты",
      "globalCategory": {
        "id": 1,
        "name": "Физические лица"
      }
    },
    {
      "id": 61,
      "title": "пластиковые карты",
      "globalCategory": {
        "id": 1,
        "name": "Физические лица"
      }
    },
    {
      "id": 62,
      "title": "ипотека",
      "globalCategory": {
        "id": 1,
        "name": "Физические лица"
      }
    },
    {
      "id": 63,
      "title": "Sme",
      "globalCategory": {
        "id": 1,
        "name": "Физические лица"
      }
    },
    {
      "id": 65,
      "title": "накопительные счета",
      "globalCategory": {
        "id": 1,
        "name": "Физические лица"
      }
    },
    {
      "id": 67,
      "title": "сейфы",
      "globalCategory": {
        "id": 1,
        "name": "Физические лица"
      }
    },
    {
      "id": 69,
      "title": "автокредитование",
      "globalCategory": {
        "id": 1,
        "name": "Физические лица"
      }
    },
    {
      "id": 70,
      "title": "кредитные карты",
      "globalCategory": {
        "id": 1,
        "name": "Физические лица"
      }
    },
    {
      "id": 71,
      "title": "потребительские кредиты",
      "globalCategory": {
        "id": 1,
        "name": "Физические лица"
      }
    },
    {
      "id": 72,
      "title": "мотивационные программы",
      "globalCategory": {
        "id": 1,
        "name": "Физические лица"
      }
    },
    {
      "id": 73,
      "title": "нормативные документы",
      "globalCategory": {
        "id": 1,
        "name": "Физические лица"
      }
    },
    {
      "id": 74,
      "title": "текущие счета",
      "globalCategory": {
        "id": 1,
        "name": "Физические лица"
      }
    },
    {
      "id": 75,
      "title": "пифы",
      "globalCategory": {
        "id": 1,
        "name": "Физические лица"
      }
    },
    {
      "id": 76,
      "title": "дебетовые карты",
      "globalCategory": {
        "id": 1,
        "name": "Физические лица"
      }
    },
    {
      "id": 77,
      "title": "циркулярные письма",
      "globalCategory": {
        "id": 1,
        "name": "Физические лица"
      }
    },
    {
      "id": 80,
      "title": "страхование ",
      "globalCategory": {
        "id": 1,
        "name": "Физические лица"
      }
    },
    {
      "id": 81,
      "title": "оформление документов",
      "globalCategory": {
        "id": 1,
        "name": "Физические лица"
      }
    },
    {
      "id": 82,
      "title": "кредитование",
      "globalCategory": {
        "id": 1,
        "name": "Физические лица"
      }
    },
    {
      "id": 84,
      "title": "прочее",
      "globalCategory": {
        "id": 1,
        "name": "Физические лица"
      }
    },
    {
      "id": 151,
      "title": "овердрафт",
      "globalCategory": {
        "id": 1,
        "name": "Физические лица"
      }
    },
    {
      "id": 156,
      "title": "Affluent",
      "globalCategory": {
        "id": 1,
        "name": "Физические лица"
      }
    },
    {
      "id": 163,
      "title": "пакеты услуг",
      "globalCategory": {
        "id": 1,
        "name": "Физические лица"
      }
    },
    {
      "id": 189,
      "title": "монеты",
      "globalCategory": {
        "id": 1,
        "name": "Физические лица"
      }
    }
  ]
}