<svg xmlns:svg="http://www.w3.org/2000/svg" xmlns="http://www.w3.org/2000/svg" xmlns:xlink="http://www.w3.org/1999/xlink" version="1.0" width="35" height="35" viewBox="-78 0 1 65" id="svg2" xml:space="preserve">
<defs id="defs4"><clipPath id="clipPath2700"><path d="M 66.933,791.454 C 66.933,782.301 59.508,774.876 50.346,774.876 C 41.193,774.876 33.768,782.301 33.768,791.454 C 33.768,800.616 41.193,808.032 50.346,808.032 C 59.508,808.032 66.933,800.616 66.933,791.454" id="path2702"/></clipPath><clipPath id="clipPath2694"><path d="M 50.346,774.876 C 46.123,774.876 42.268,776.457 39.34,779.058 C 40.962,780.258 44.721,783.04 45.855,783.921 C 47.277,785.019 54.558,791.094 56.835,793.065 C 59.112,795.036 62.226,797.907 62.226,797.907 C 63.154,798.734 63.967,799.43 64.553,800.018 C 66.063,797.52 66.933,794.589 66.933,791.454 C 66.933,782.301 59.508,774.876 50.346,774.876" id="path2696"/></clipPath><clipPath id="clipPath2718"><path d="M 66.933,791.454 C 66.933,782.301 59.508,774.876 50.346,774.876 C 41.193,774.876 33.768,782.301 33.768,791.454 C 33.768,800.616 41.193,808.032 50.346,808.032 C 59.508,808.032 66.933,800.616 66.933,791.454" id="path2720"/></clipPath><clipPath id="clipPath2712"><path d="M 37.768,780.656 C 35.275,783.558 33.768,787.33 33.768,791.454 C 33.768,800.616 41.193,808.032 50.346,808.032 C 54.641,808.032 58.554,806.402 61.499,803.727 C 61.037,803.747 60.524,803.756 59.978,803.756 C 55.889,803.756 49.932,803.251 49.104,803.091 C 48.078,802.884 48.015,801.912 48.366,801.642 C 48.708,801.381 50.463,800.364 50.985,800.04 C 51.516,799.716 51.435,799.464 51.255,799.167 C 51.066,798.861 49.131,796.377 49.131,796.377 C 48.436,795.551 40.356,784.273 37.768,780.656" id="path2714"/></clipPath><clipPath id="clipPath2736"><path d="M 37.176,777.813 C 37.001,777.813 36.837,777.868 36.702,778.008 C 36.162,778.557 36.702,779.178 36.981,779.556 C 37.022,779.613 37.308,780.014 37.768,780.656 C 38.256,780.089 38.78,779.555 39.34,779.058 C 38.941,778.763 38.67,778.563 38.601,778.512 C 38.331,778.309 37.702,777.813 37.176,777.813 M 64.553,800.018 C 63.718,801.399 62.688,802.648 61.499,803.727 C 61.866,803.711 62.201,803.688 62.496,803.658 C 65.107,803.38 65.485,802.759 65.52,802.132 L 65.52,801.87 C 65.516,801.753 65.508,801.637 65.511,801.525 C 65.52,801.122 65.158,800.628 64.553,800.018" id="path2738"/></clipPath><clipPath id="clipPath2730"><path d="M 65.548,803.76 L 36.14,803.76 L 36.14,777.795 L 65.548,777.795 L 65.548,803.76 z" id="path2732"/></clipPath><clipPath id="clipPath2870"><path d="M 19.017,822.792 L 298.557,822.792 L 298.557,762.429 L 19.017,762.429 L 19.017,822.792 z" id="path2872"/></clipPath><clipPath id="clipPath2754"><path d="M 39.34,779.058 C 38.78,779.555 38.256,780.089 37.768,780.656 C 40.356,784.273 48.436,795.551 49.131,796.377 C 49.131,796.377 51.066,798.861 51.255,799.167 C 51.435,799.464 51.516,799.716 50.985,800.04 C 50.463,800.364 48.708,801.381 48.366,801.642 C 48.015,801.912 48.078,802.884 49.104,803.091 C 49.932,803.251 55.889,803.756 59.978,803.756 C 60.524,803.756 61.037,803.747 61.499,803.727 C 62.688,802.648 63.718,801.399 64.553,800.018 C 63.967,799.43 63.154,798.734 62.226,797.907 C 62.226,797.907 59.112,795.036 56.835,793.065 C 54.558,791.094 47.277,785.019 45.855,783.921 C 44.721,783.04 40.962,780.258 39.34,779.058" id="path2756"/></clipPath><clipPath id="clipPath2748"><path d="M 64.566,803.786 L 37.746,803.786 L 37.746,779.036 L 64.566,779.036 L 64.566,803.786 z" id="path2750"/></clipPath><linearGradient id="linearGradient5389"><stop id="stop5391" style="stop-color:#ffffff;stop-opacity:1" offset="0"/><stop id="stop3758" style="stop-color:#e70108;stop-opacity:1" offset="0.30322784"/><stop id="stop5397" style="stop-color:#e71c23;stop-opacity:1" offset="0.77187908"/><stop id="stop5393" style="stop-color:#c20006;stop-opacity:1" offset="1"/></linearGradient>
	<defs id="defs42">
		<path d="M 12.242,2.72 C 12.445,2.783 12.586,2.872 12.637,3 C 12.803,3.458 12.496,3.765 12.293,3.942 C 12.752,4.783 13.006,5.737 13.006,6.745 C 13.006,10.032 10.344,12.692 7.057,12.692 C 5.668,12.692 4.395,12.233 3.389,11.442 C 3.375,11.419 3.375,11.419 3.375,11.419 C 2.955,11.698 2.84,11.774 2.84,11.774 C 2.816,11.788 2.738,11.798 2.701,11.798 C 2.611,11.798 2.547,11.774 2.51,11.723 L 2.51,11.723 C 2.561,11.723 2.612,11.7 2.651,11.684 C 2.651,11.684 2.931,11.532 4.372,10.46 C 5.378,9.723 7.122,8.333 8.677,6.957 C 10.46,5.39 11.976,3.964 12.116,3.874 C 12.294,3.67 12.612,3.377 12.421,2.906 C 12.395,2.833 12.33,2.771 12.242,2.72 L 12.242,2.72 z M 11.273,2.542 C 10.839,2.518 10.332,2.518 10.024,2.518 C 9.298,2.518 7.222,2.606 6.636,2.772 C 6.445,2.823 6.356,2.938 6.356,3.065 C 6.356,3.167 6.394,3.244 6.459,3.282 C 6.459,3.282 7.4,3.842 7.438,3.881 C 7.515,3.933 7.553,4.021 7.438,4.161 C 7.35,4.288 7.336,4.3 7.336,4.3 C 7.336,4.3 6.127,5.904 5.578,6.58 C 5.222,7.115 3.451,9.639 2.662,10.783 C 1.707,9.727 1.108,8.326 1.108,6.746 C 1.108,3.459 3.77,0.822 7.056,0.822 C 8.674,0.821 10.166,1.483 11.273,2.542 L 11.273,2.542 z" id="SVGID_20_"/>
	</defs>
	<clipPath id="SVGID_21_">
		<use id="use46" style="overflow:visible" x="0" y="0" width="208" height="65" xlink:href="#SVGID_20_"/>
	</clipPath>
	<radialGradient cx="-80.380501" cy="28.792046" r="0.15542017" fx="-80.380501" fy="28.792046" id="radialGradient5395" xlink:href="#linearGradient5389" gradientUnits="userSpaceOnUse" gradientTransform="matrix(151.26331,190.9336,-234.03511,185.41062,18794.566,10023.21)" spreadMethod="pad"/><radialGradient cx="-80.380501" cy="28.792046" r="0.15542017" fx="-80.380501" fy="28.792046" id="radialGradient3797" xlink:href="#linearGradient5389" gradientUnits="userSpaceOnUse" gradientTransform="matrix(151.26331,190.9336,-234.03511,185.41062,18794.566,10023.21)" spreadMethod="pad"/></defs>
<g transform="translate(10.222723,1.5123027)" id="g3760"><path d="M -62.205411,26.069168 C -62.191541,35.417466 -67.185091,44.061576 -75.301781,48.739723 C -83.418481,53.417872 -93.422671,53.417872 -101.53936,48.739723 C -109.65607,44.061576 -114.64962,35.417466 -114.63575,26.069168 C -114.64962,16.720864 -109.65607,8.0767489 -101.53936,3.3986039 C -93.422671,-1.2795411 -83.418481,-1.2795411 -75.301781,3.3986039 C -67.185091,8.0767489 -62.191541,16.720864 -62.205411,26.069168 L -62.205411,26.069168 z" id="path4577" style="opacity:1;fill:url(#radialGradient3797);fill-opacity:1;fill-rule:nonzero;stroke:none;stroke-width:0;stroke-miterlimit:0;stroke-dasharray:none;stroke-opacity:1"/><g transform="matrix(1.5655848,0,0,-1.5655848,-90.188963,18.588955)" id="g2762"><path d="M 0,0 C 0,0 1.916,2.478 2.098,2.782 C 2.281,3.087 2.354,3.331 1.835,3.656 C 1.316,3.981 -0.42,4.996 -0.765,5.26 C -1.11,5.524 -1.05,6.499 -0.034,6.702 C 0.981,6.905 9.797,7.636 13.229,7.271 C 16.662,6.905 16.195,5.93 16.215,5.139 C 16.235,4.346 14.834,3.208 12.965,1.523 C 12.965,1.523 9.878,-1.341 7.623,-3.311 C 5.369,-5.281 -1.841,-11.354 -3.243,-12.451 C -4.645,-13.548 -10.078,-17.591 -10.431,-17.856 C -10.784,-18.12 -11.77,-18.914 -12.307,-18.361 C -12.844,-17.808 -12.307,-17.191 -12.034,-16.813 C -11.762,-16.437 -0.812,-0.976 0,0" id="path2764" style="fill:#ffffff;fill-opacity:1;fill-rule:nonzero;stroke:none"/></g></g></svg>